{
  "title": "npc_database",
  "type": "array",
  "uniqueItems": true,
  "items": {
    "type": "object",
    "title": "npc",
    "properties": {
      "id": {
        "type": "string"
      },
      "name": {
        "type": "string"
      },
      "class": {
        "type": "string",
        "enum": [
          "villanger",
          "soldier",
          "magicianst",
          "agent",
          "other"
        ]
      },
      "state": {
        "type": "object",
        "title": "status",
        "properties": {
          "active": {
            "type": "boolean",
            "default": "true"
          },
          "deceit": {
            "type": "boolean",
            "default": "true"
          },
          "comply": {
            "type": "boolean",
            "default": "true"
          },
          "fright": {
            "type": "boolean",
            "default": "true"
          },
          "awe": {
            "type": "boolean",
            "default": "true"
          },
          "daunt": {
            "type": "boolean",
            "default": "true"
          },
          "brace": {
            "type": "boolean",
            "default": "true"
          }
        }
      },
      "intro": {
        "type": "object",
        "title": "intro",
        "properties": {
          "en": {
            "type": "string"
          },
          "zh": {
            "type": "string"
          },
          "de": {
            "type": "string"
          },
          "es": {
            "type": "string"
          },
          "fr": {
            "type": "string"
          },
          "it": {
            "type": "string"
          },
          "ja": {
            "type": "string"
          },
          "ko": {
            "type": "string"
          },
          "th": {
            "type": "string"
          }
        }
      },
      "dialog_path": {
        "type": "array",
        "uniqueItems": true,
        "items": {
          "properties": {
            "level": {
              "type": "integer"
            },
            "active": {
              "type": "boolean",
              "default": false
            },

            "icon": {
              "type": "string",
              "default": "question_mark",
              "enum": [
                "agents",
                "athird_dwarf",
                "athird_elf",
                "athird_undead",
                "caravan",
                "cerene",
                "elven_princess",
                "meet",
                "question_mark",
                "quest",
                "skull",
                "trade",
                "triadparty",
                "verlitia"
              ]
            },


            "right_choice": {
              "type": "string",
              "enum": [
                "deceit",
                "comply",
                "fright",
                "awe",
                "daunt",
                "brace"
              ]
            },
            "wrong_choice": {
              "type": "string",
              "enum": [
                "deceit",
                "comply",
                "fright",
                "awe",
                "daunt",
                "brace"
              ]
            },
            "right_text": {
              "type": "object",
              "title": "right_text",
              "properties": {
                "en": {
                  "type": "string"
                },
                "zh": {
                  "type": "string"
                },
                "de": {
                  "type": "string"
                },
                "es": {
                  "type": "string"
                },
                "fr": {
                  "type": "string"
                },
                "it": {
                  "type": "string"
                },
                "ja": {
                  "type": "string"
                },
                "ko": {
                  "type": "string"
                },
                "th": {
                  "type": "string"
                }
              }
            },
            "wrong_text": {
              "type": "object",
              "title": "wrong_text",
              "properties": {
                "en": {
                  "type": "string"
                },
                "zh": {
                  "type": "string"
                },
                "de": {
                  "type": "string"
                },
                "es": {
                  "type": "string"
                },
                "fr": {
                  "type": "string"
                },
                "it": {
                  "type": "string"
                },
                "ja": {
                  "type": "string"
                },
                "ko": {
                  "type": "string"
                },
                "th": {
                  "type": "string"
                }
              }
            }
          }
        }
      }
    }
  }
}